…
To know the fields for that specific dataset:
```julia
keys(dat)
``` 
```julia
KeySet for a Dict{String, Int64} with 2 entries. Keys:
  "data"
  "q.matrix"
```
And to access one of those fields:
```julia
dat["q.matrix"]
```
```julia
28×3 DataFrame
 Row │ skill1  skill2  skill3 
     │ Int32   Int32   Int32  
─────┼────────────────────────
   1 │      1       1       0
   2 │      0       1       0
   3 │      1       0       1
   4 │      0       0       1
   5 │      0       0       1
  ⋮  │   ⋮       ⋮       ⋮
  24 │      0       1       0
  25 │      1       0       0
  26 │      0       0       1
  27 │      1       0       0
  28 │      0       0       1
               18 rows omitted
```
